…
Instructions for this lab report can be found on [Your assignment section of Lab Assignment 3 Introduction to ggplot2](https://biol275-msum.github.io/introduction-to-ggplot2.html#your-assignment) on the lab website.

## Fireflies

> A. Insert an R code chunk and create a graph depicting the frequency distribution of the 35 mass measurements. It should have legible text and appropriate axis labels.

```{r}
library(tidyverse)

firefly_data <- read_csv("https://whitlockschluter.zoology.ubc.ca/wp-content/data/chapter02/chap02q19FireflySpermatophoreMass.csv")

firefly_data
# A tibble: 35 x 1
#> spermatophoreMass
#> <dbl>
#> 1             0.047
#> 2             0.037
#> 3             0.041
#> 4             0.045
#> 5             0.039
#> 6             0.064
#> 7             0.064
#> 8             0.065
#> 9             0.079
#> 10             0.07 
# ... with 25 more rows
…
